[
    {
        "id": 163513,
        "title": "Lost Barz 2",
        "description": "",
        "released": true,
        "released_at": "2018-09-09T00:48:00Z",
        "short_url": "http://spnr.la/y3M873wM",
        "various_artists": false,
        "instrumental": false,
        "accessible": true,
        "downloadable": true,
        "itunes_url": null,
        "youtube_url": null,
        "slug": "youngin-wood-lost-barz-2",
        "videos": [],
        "stats": {
            "views": 982,
            "plays": 116,
            "downloads": 13
        },
        "covers": {
            "large": "https://cdn.spinrilla.com/albums/163513/large/73c2ba9df3019b6a0cac.jpg?1536078292",
            "medium": "https://cdn.spinrilla.com/albums/163513/mobile_high_res/73c2ba9df3019b6a0cac.jpg?1536078292",
            "thumb": "https://cdn.spinrilla.com/albums/163513/thumb/73c2ba9df3019b6a0cac.jpg?1536078292"
        },
        "tracks": [
            {
                "id": 1967327,
                "album_id": 163513,
                "title": "Still Tippin (Freestyle)",
                "artist": "Youngin Wood",
                "duration": 114,
                "position": 1,
                "audio_url": "https://spinrilla.com/tracks/1967327/original.mp3?1536453686",
                "url": "https://spinrilla.com/songs/1967327-youngin-wood-still-tippin-freestyle",
                "videos": [],
                "licensed": true,
                "released_at": "2018-09-08T20:40:52-04:00",
                "streams": 317,
                "downloads": 14,
                "slug": "1967327-youngin-wood-still-tippin-freestyle"
            },
            {
                "id": 1967328,
                "album_id": 163513,
                "title": "Glow",
                "artist": "Youngin Wood",
                "duration": 202,
                "position": 2,
                "audio_url": "https://spinrilla.com/tracks/1967328/original.mp3?1536453764",
                "url": "https://spinrilla.com/songs/1967328-youngin-wood-glow",
                "videos": [],
                "licensed": true,
                "released_at": "2018-09-08T20:40:56-04:00",
                "streams": 207,
                "downloads": 13,
                "slug": "1967328-youngin-wood-glow"
            },
            {
                "id": 1967329,
                "album_id": 163513,
                "title": "Who Run It (Freestyle)",
                "artist": "Youngin Wood",
                "duration": 134,
                "position": 3,
                "audio_url": "https://spinrilla.com/tracks/1967329/original.mp3?1536453765",
                "url": "https://spinrilla.com/songs/1967329-youngin-wood-who-run-it-freestyle",
                "videos": [],
                "licensed": true,
                "released_at": "2018-09-08T20:41:01-04:00",
                "streams": 124,
                "downloads": 13,
                "slug": "1967329-youngin-wood-who-run-it-freestyle"
            },
            {
                "id": 1967330,
                "album_id": 163513,
                "title": "Plug Talk",
                "artist": "Youngin Wood",
                "duration": 157,
                "position": 4,
                "audio_url": "https://spinrilla.com/tracks/1967330/original.mp3?1536453767",
                "url": "https://spinrilla.com/songs/1967330-youngin-wood-plug-talk",
                "videos": [],
                "licensed": true,
                "released_at": "2018-09-08T20:41:05-04:00",
                "streams": 135,
                "downloads": 13,
                "slug": "1967330-youngin-wood-plug-talk"
            },
            {
                "id": 1967331,
                "album_id": 163513,
                "title": "Pissed Off",
                "artist": "Youngin Wood",
                "duration": 120,
                "position": 5,
                "audio_url": "https://spinrilla.com/tracks/1967331/original.mp3?1536453767",
                "url": "https://spinrilla.com/songs/1967331-youngin-wood-pissed-off",
                "videos": [],
                "licensed": true,
                "released_at": "2018-09-08T20:41:10-04:00",
                "streams": 109,
                "downloads": 13,
                "slug": "1967331-youngin-wood-pissed-off"
            },
            {
                "id": 1967332,
                "album_id": 163513,
                "title": "Okay",
                "artist": "Youngin Wood",
                "duration": 183,
                "position": 6,
                "audio_url": "https://spinrilla.com/tracks/1967332/original.mp3?1536453769",
                "url": "https://spinrilla.com/songs/1967332-youngin-wood-okay",
                "videos": [],
                "licensed": true,
                "released_at": "2018-09-08T20:41:15-04:00",
                "streams": 57,
                "downloads": 13,
                "slug": "1967332-youngin-wood-okay"
            },
            {
                "id": 1967333,
                "album_id": 163513,
                "title": "Hustle & Motivate",
                "artist": "Youngin Wood",
                "duration": 118,
                "position": 7,
                "audio_url": "https://spinrilla.com/tracks/1967333/original.mp3?1536453789",
                "url": "https://spinrilla.com/songs/1967333-youngin-wood-hustle-motivate",
                "videos": [],
                "licensed": true,
                "released_at": "2018-09-08T20:41:18-04:00",
                "streams": 33,
                "downloads": 14,
                "slug": "1967333-youngin-wood-hustle-motivate"
            },
            {
                "id": 1967345,
                "album_id": 163513,
                "title": "Stop Hatin",
                "artist": "Youngin Wood",
                "duration": 165,
                "position": 8,
                "audio_url": "https://spinrilla.com/tracks/1967345/original.mp3?1536453953",
                "url": "https://spinrilla.com/songs/1967345-youngin-wood-stop-hatin",
                "videos": [],
                "licensed": true,
                "released_at": "2018-09-08T20:45:17-04:00",
                "streams": 36,
                "downloads": 13,
                "slug": "1967345-youngin-wood-stop-hatin"
            },
            {
                "id": 1967355,
                "album_id": 163513,
                "title": "Chuckin Dueces (Freestyle)",
                "artist": "Youngin Wood",
                "duration": 180,
                "position": 9,
                "audio_url": "https://spinrilla.com/tracks/1967355/original.mp3?1536454104",
                "url": "https://spinrilla.com/songs/1967355-youngin-wood-chuckin-dueces-freestyle",
                "videos": [],
                "licensed": true,
                "released_at": "2018-09-08T20:47:54-04:00",
                "streams": 30,
                "downloads": 14,
                "slug": "1967355-youngin-wood-chuckin-dueces-freestyle"
            }
        ],
        "artists": [
            {
                "id": 15397248,
                "displayname": "Youngin Wood",
                "twitter": ""
            }
        ],
        "hosts": [
            {
                "id": 23550,
                "displayname": "DJ 837",
                "twitter": "DJ837"
            }
        ]
    }
]
